Lab4/simulation/qsim/LogicalStep_Lab4.msim.vcd
$comment
	File created using the following command:
		vcd file LogicalStep_Lab4.msim.vcd -direction
$end
$date
	Tue Jul 18 17:56:30 2023
$end
$version
	ModelSim Version 10.5b
$end
$timescale
	1ps
$end

$scope module logicalstep_lab4_top_vhd_vec_tst $end
$var wire 1 ! clkin_50 $end
$var wire 1 " leds [7] $end
$var wire 1 # leds [6] $end
$var wire 1 $ leds [5] $end
$var wire 1 % leds [4] $end
$var wire 1 & leds [3] $end
$var wire 1 ' leds [2] $end
$var wire 1 ( leds [1] $end
$var wire 1 ) leds [0] $end
$var wire 1 * pb_n [3] $end
$var wire 1 + pb_n [2] $end
$var wire 1 , pb_n [1] $end
$var wire 1 - pb_n [0] $end
$var wire 1 . rst_n $end
$var wire 1 / seg7_char1 $end
$var wire 1 0 seg7_char2 $end
$var wire 1 1 seg7_data [6] $end
$var wire 1 2 seg7_data [5] $end
$var wire 1 3 seg7_data [4] $end
$var wire 1 4 seg7_data [3] $end
$var wire 1 5 seg7_data [2] $end
$var wire 1 6 seg7_data [1] $end
$var wire 1 7 seg7_data [0] $end
$var wire 1 8 sw [7] $end
$var wire 1 9 sw [6] $end
$var wire 1 : sw [5] $end
$var wire 1 ; sw [4] $end
$var wire 1 < sw [3] $end
$var wire 1 = sw [2] $end
$var wire 1 > sw [1] $end
$var wire 1 ? sw [0] $end

$scope module i1 $end
$var wire 1 @ gnd $end
$var wire 1 A vcc $end
$var wire 1 B unknown $end
$var wire 1 C devoe $end
$var wire 1 D devclrn $end
$var wire 1 E devpor $end
$var wire 1 F ww_devoe $end
$var wire 1 G ww_devclrn $end
$var wire 1 H ww_devpor $end
$var wire 1 I ww_clkin_50 $end
$var wire 1 J ww_rst_n $end
$var wire 1 K ww_pb_n [3] $end
$var wire 1 L ww_pb_n [2] $end
$var wire 1 M ww_pb_n [1] $end
$var wire 1 N ww_pb_n [0] $end
$var wire 1 O ww_sw [7] $end
$var wire 1 P ww_sw [6] $end
$var wire 1 Q ww_sw [5] $end
$var wire 1 R ww_sw [4] $end
$var wire 1 S ww_sw [3] $end
$var wire 1 T ww_sw [2] $end
$var wire 1 U ww_sw [1] $end
$var wire 1 V ww_sw [0] $end
$var wire 1 W ww_leds [7] $end
$var wire 1 X ww_leds [6] $end
$var wire 1 Y ww_leds [5] $end
$var wire 1 Z ww_leds [4] $end
$var wire 1 [ ww_leds [3] $end
$var wire 1 \ ww_leds [2] $end
$var wire 1 ] ww_leds [1] $end
$var wire 1 ^ ww_leds [0] $end
$var wire 1 _ ww_seg7_data [6] $end
$var wire 1 ` ww_seg7_data [5] $end
$var wire 1 a ww_seg7_data [4] $end
$var wire 1 b ww_seg7_data [3] $end
$var wire 1 c ww_seg7_data [2] $end
$var wire 1 d ww_seg7_data [1] $end
$var wire 1 e ww_seg7_data [0] $end
$var wire 1 f ww_seg7_char1 $end
$var wire 1 g ww_seg7_char2 $end
$var wire 1 h \~QUARTUS_CREATED_ADC1~_CHSEL_bus\ [4] $end
$var wire 1 i \~QUARTUS_CREATED_ADC1~_CHSEL_bus\ [3] $end
$var wire 1 j \~QUARTUS_CREATED_ADC1~_CHSEL_bus\ [2] $end
$var wire 1 k \~QUARTUS_CREATED_ADC1~_CHSEL_bus\ [1] $end
$var wire 1 l \~QUARTUS_CREATED_ADC1~_CHSEL_bus\ [0] $end
$var wire 1 m \clkin_50~inputclkctrl_INCLK_bus\ [3] $end
$var wire 1 n \clkin_50~inputclkctrl_INCLK_bus\ [2] $end
$var wire 1 o \clkin_50~inputclkctrl_INCLK_bus\ [1] $end
$var wire 1 p \clkin_50~inputclkctrl_INCLK_bus\ [0] $end
$var wire 1 q \pb_n[0]~input_o\ $end
$var wire 1 r \pb_n[1]~input_o\ $end
$var wire 1 s \pb_n[2]~input_o\ $end
$var wire 1 t \pb_n[3]~input_o\ $end
$var wire 1 u \sw[0]~input_o\ $end
$var wire 1 v \sw[1]~input_o\ $end
$var wire 1 w \sw[2]~input_o\ $end
$var wire 1 x \sw[3]~input_o\ $end
$var wire 1 y \sw[4]~input_o\ $end
$var wire 1 z \sw[5]~input_o\ $end
$var wire 1 { \sw[6]~input_o\ $end
$var wire 1 | \sw[7]~input_o\ $end
$var wire 1 } \~QUARTUS_CREATED_GND~I_combout\ $end
$var wire 1 ~ \~QUARTUS_CREATED_UNVM~~busy\ $end
$var wire 1 !! \~QUARTUS_CREATED_ADC1~~eoc\ $end
$var wire 1 "! \leds[0]~output_o\ $end
$var wire 1 #! \leds[1]~output_o\ $end
$var wire 1 $! \leds[2]~output_o\ $end
$var wire 1 %! \leds[3]~output_o\ $end
$var wire 1 &! \leds[4]~output_o\ $end
$var wire 1 '! \leds[5]~output_o\ $end
$var wire 1 (! \leds[6]~output_o\ $end
$var wire 1 )! \leds[7]~output_o\ $end
$var wire 1 *! \seg7_data[0]~output_o\ $end
$var wire 1 +! \seg7_data[1]~output_o\ $end
$var wire 1 ,! \seg7_data[2]~output_o\ $end
$var wire 1 -! \seg7_data[3]~output_o\ $end
$var wire 1 .! \seg7_data[4]~output_o\ $end
$var wire 1 /! \seg7_data[5]~output_o\ $end
$var wire 1 0! \seg7_data[6]~output_o\ $end
$var wire 1 1! \seg7_char1~output_o\ $end
$var wire 1 2! \seg7_char2~output_o\ $end
$var wire 1 3! \clkin_50~input_o\ $end
$var wire 1 4! \clkin_50~inputclkctrl_outclk\ $end
$var wire 1 5! \rst_n~input_o\ $end
$var wire 1 6! \INST5|not_val~0_combout\ $end
$var wire 1 7! \INST5|not_val~q\ $end
$var wire 1 8! \INST7|D~feeder_combout\ $end
$var wire 1 9! \INST7|D~q\ $end
$var wire 1 :! \INST5|D~feeder_combout\ $end
$var wire 1 ;! \INST5|D~q\ $end
$upscope $end
$upscope $end
$enddefinitions $end
#0
$dumpvars
0!
0.
0/
00
0@
1A
xB
1C
1D
1E
1F
1G
1H
0I
0J
0f
0g
1q
1r
xs
xt
xu
xv
xw
xx
xy
xz
x{
x|
0}
z~
z!!
0"!
0#!
0$!
0%!
0&!
0'!
0(!
0)!
0*!
0+!
0,!
0-!
0.!
0/!
00!
01!
02!
03!
04!
05!
16!
07!
08!
09!
0:!
0;!
x*
x+
1,
1-
0"
0#
0$
0%
0&
0'
0(
0)
01
02
03
04
05
06
07
xK
xL
1M
1N
xO
xP
xQ
xR
xS
xT
xU
xV
0W
0X
0Y
0Z
0[
0\
0]
0^
0_
0`
0a
0b
0c
0d
0e
1m
1n
1o
0p
0h
0i
0j
0k
0l
x8
x9
x:
x;
x<
x=
x>
x?
$end
#10000
1!
1I
13!
1p
14!
17!
18!
1:!
#20000
0!
0I
03!
0p
04!
#30000
1!
1I
13!
1p
14!
19!
1;!
1%!
1#!
1[
1]
1(
1&
#40000
0!
0I
03!
0p
04!
#50000
1!
1I
13!
1p
14!
#60000
0!
0I
03!
0p
04!
#70000
1!
1I
13!
1p
14!
#80000
0!
0I
03!
0p
04!
#90000
1!
1I
13!
1p
14!
#100000
0!
0I
03!
0p
04!
#110000
1!
1I
13!
1p
14!
#120000
0!
0I
03!
0p
04!
#130000
1!
1I
13!
1p
14!
#140000
0!
0I
03!
0p
04!
#150000
1!
1I
13!
1p
14!
#160000
0!
0I
03!
0p
04!
#170000
1!
0,
0-
1I
0N
0M
0r
0q
13!
1p
14!
#180000
0!
0I
03!
0p
04!
#190000
1!
1I
13!
1p
14!
#200000
0!
0I
03!
0p
04!
#210000
1!
1I
13!
1p
14!
#220000
0!
0I
03!
0p
04!
#230000
1!
1I
13!
1p
14!
#240000
0!
0I
03!
0p
04!
#250000
1!
1I
13!
1p
14!
#260000
0!
0I
03!
0p
04!
#270000
1!
1I
13!
1p
14!
#280000
0!
0I
03!
0p
04!
#290000
1!
1I
13!
1p
14!
#300000
0!
0I
03!
0p
04!
#310000
1!
1I
13!
1p
14!
#320000
0!
0I
03!
0p
04!
#330000
1!
1I
13!
1p
14!
#340000
0!
0I
03!
0p
04!
#350000
1!
1I
13!
1p
14!
#360000
0!
0I
03!
0p
04!
#370000
1!
1I
13!
1p
14!
#380000
0!
0I
03!
0p
04!
#390000
1!
1I
13!
1p
14!
#400000
0!
0I
03!
0p
04!
#410000
1!
1I
13!
1p
14!
#420000
0!
0I
03!
0p
04!
#430000
1!
1I
13!
1p
14!
#440000
0!
0I
03!
0p
04!
#450000
1!
1I
13!
1p
14!
#460000
0!
0I
03!
0p
04!
#470000
1!
1I
13!
1p
14!
#480000
0!
0I
03!
0p
04!
#490000
1!
1I
13!
1p
14!
#500000
0!
0I
03!
0p
04!
#510000
1!
1I
13!
1p
14!
#520000
0!
0I
03!
0p
04!
#530000
1!
1I
13!
1p
14!
#540000
0!
0I
03!
0p
04!
#550000
1!
1I
13!
1p
14!
#560000
0!
0I
03!
0p
04!
#570000
1!
1I
13!
1p
14!
#580000
0!
0I
03!
0p
04!
#590000
1!
1I
13!
1p
14!
#600000
0!
0I
03!
0p
04!
#610000
1!
1I
13!
1p
14!
#620000
0!
0I
03!
0p
04!
#630000
1!
1I
13!
1p
14!
#640000
0!
0I
03!
0p
04!
#650000
1!
1I
13!
1p
14!
#660000
0!
0I
03!
0p
04!
#670000
1!
1I
13!
1p
14!
#680000
0!
0I
03!
0p
04!
#690000
1!
1I
13!
1p
14!
#700000
0!
0I
03!
0p
04!
#710000
1!
1I
13!
1p
14!
#720000
0!
0I
03!
0p
04!
#730000
1!
1I
13!
1p
14!
#740000
0!
0I
03!
0p
04!
#750000
1!
1I
13!
1p
14!
#760000
0!
0I
03!
0p
04!
#770000
1!
1I
13!
1p
14!
#780000
0!
0I
03!
0p
04!
#790000
1!
1I
13!
1p
14!
#800000
0!
0I
03!
0p
04!
#810000
1!
1I
13!
1p
14!
#820000
0!
0I
03!
0p
04!
#830000
1!
1I
13!
1p
14!
#840000
0!
0I
03!
0p
04!
#850000
1!
1I
13!
1p
14!
#860000
0!
0I
03!
0p
04!
#870000
1!
1I
13!
1p
14!
#880000
0!
0I
03!
0p
04!
#890000
1!
1I
13!
1p
14!
#900000
0!
0I
03!
0p
04!
#910000
1!
1I
13!
1p
14!
#920000
0!
0I
03!
0p
04!
#930000
1!
1I
13!
1p
14!
#940000
0!
0I
03!
0p
04!
#950000
1!
1I
13!
1p
14!
#960000
0!
0I
03!
0p
04!
#970000
1!
1I
13!
1p
14!
#980000
0!
0I
03!
0p
04!
#990000
1!
1I
13!
1p
14!
